Reinforcement Learning and Text Summarization in R – Language Technology and Data Analysis Laboratory (LADAL)
…
Next we will tokenize based on words.

article_words <- article_sentences %>%
    tidytext::unnest_tokens(word, sentence)
article_words

# A tibble: 466 × 2
   sentence_id word    
         <int> <chr>   
 1           1 fitbit’s
 2           1 newest  
 3           1 fitness 
 4           1 tracker 
 5           1 is      
 6           1 just    
 7           1 for     
 8           1 kids    
 9           2 fitbit  
10           2 is      
# ℹ 456 more rows

We have one last step left is to remove the stop words in article_words as they are prone to result in redundancy.

article_words <- article_words %>%
    dplyr::anti_join(stop_words, by = "word")
article_words

# A tibble: 225 × 2
   sentence_id word     
         <int> <chr>    
 1           1 fitbit’s 
 2           1 fitness  
 3           1 tracker  
 4           1 kids     
 5           2 fitbit   
 6           2 launching
 7           2 fitness  
 8           2 tracker  
 9           2 designed 
10           2 children 
# ℹ 215 more rows
…
