litsty – Language Technology and Data Analysis Laboratory (LADAL)
…
Austen
in
1,991
127,996
0.0155551735992
0.000000000000
0.00000000000000

From the above table it is evident that the extremely common words have a very low inverse document frequency and thus a low tf-idf score. The inverse document frequency will be a higher number for words that occur in fewer documents in the collection of novels.

book_tf_idf %>%
    dplyr::select(-total) %>%
    dplyr::arrange(desc(tf_idf))

# A tibble: 18,777 × 6
# Groups:   book [4]
   book        word          n      tf   idf  tf_idf
   <fct>       <chr>     <int>   <dbl> <dbl>   <dbl>
 1 Shakespeare romeo       300 0.0115  1.39  0.0159 
 2 Poe         nevermore    11 0.0100  1.39  0.0139 
 3 Poe         lenore        8 0.00730 1.39  0.0101 
 4 Shakespeare juliet      178 0.00681 1.39  0.00945
 5 Shakespeare nurse       148 0.00567 1.39  0.00785
 6 Poe         bust          6 0.00547 1.39  0.00759
 7 Shakespeare capulet     141 0.00540 1.39  0.00748
 8 Shakespeare thou        277 0.0106  0.693 0.00735
 9 Poe         raven        11 0.0100  0.693 0.00696
10 Darwin      species    1546 0.00985 0.693 0.00683
# ℹ 18,767 more rows
…
